%YAML 1.1
%TAG !u! tag:unity3d.com,2011:
--- !u!1 &897817681582883392
GameObject:
  m_ObjectHideFlags: 0
  m_CorrespondingSourceObject: {fileID: 0}
  m_PrefabInstance: {fileID: 0}
  m_PrefabAsset: {fileID: 0}
  serializedVersion: 6
  m_Component:
  - component: {fileID: 1954856321894852518}
  - component: {fileID: 877943220582143346}
  - component: {fileID: 9044816932832928018}
  m_Layer: 3
  m_Name: DownLegHitbox
  m_TagString: Player
  m_Icon: {fileID: 0}
  m_NavMeshLayer: 0
  m_StaticEditorFlags: 0
  m_IsActive: 1
--- !u!4 &1954856321894852518
Transform:
  m_ObjectHideFlags: 0
  m_CorrespondingSourceObject: {fileID: 0}
  m_PrefabInstance: {fileID: 0}
  m_PrefabAsset: {fileID: 0}
  m_GameObject: {fileID: 897817681582883392}
  m_LocalRotation: {x: 0, y: 0, z: -0.035283223, w: 0.99937737}
  m_LocalPosition: {x: 0.00039, y: -0.00021, z: 0}
  m_LocalScale: {x: 1, y: 1, z: 1}
  m_ConstrainProportionsScale: 0
  m_Children: []
  m_Father: {fileID: 0}
  m_RootOrder: 0
  m_LocalEulerAnglesHint: {x: 0, y: 0, z: -4.044}
--- !u!136 &877943220582143346
CapsuleCollider:
  m_ObjectHideFlags: 0
  m_CorrespondingSourceObject: {fileID: 0}
  m_PrefabInstance: {fileID: 0}
  m_PrefabAsset: {fileID: 0}
  m_GameObject: {fileID: 897817681582883392}
  m_Material: {fileID: 0}
  m_IsTrigger: 0
  m_Enabled: 1
  m_Radius: 0.002
  m_Height: 0.0075
  m_Direction: 1
  m_Center: {x: 0, y: 0.003, z: 0}
--- !u!114 &9044816932832928018
MonoBehaviour:
  m_ObjectHideFlags: 0
  m_CorrespondingSourceObject: {fileID: 0}
  m_PrefabInstance: {fileID: 0}
  m_PrefabAsset: {fileID: 0}
  m_GameObject: {fileID: 897817681582883392}
  m_Enabled: 1
  m_EditorHideFlags: 0
  m_Script: {fileID: 11500000, guid: a549ac6fad68eb54ba42901f28b00e7e, type: 3}
  m_Name: 
  m_EditorClassIdentifier: 
  Multiplier: 0.75
