{
    "name": "InputAssets",
    "maps": [
        {
            "name": "Player",
            "id": "f62a4b92-ef5e-4175-8f4c-c9075429d32c",
            "actions": [
                {
                    "name": "Move",
                    "type": "Value",
                    "id": "6bc1aaf4-b110-4ff7-891e-5b9fe6f32c4d",
                    "expectedControlType": "Vector2",
                    "processors": "",
                    "interactions": "",
                    "initialStateCheck": true
                },
                {
                    "name": "Look",
                    "type": "Value",
                    "id": "2690c379-f54d-45be-a724-414123833eb4",
                    "expectedControlType": "Vector2",
                    "processors": "",
                    "interactions": "",
                    "initialStateCheck": true
                },
                {
                    "name": "Jump",
                    "type": "Button",
                    "id": "8c4abdf8-4099-493a-aa1a-129acec7c3df",
                    "expectedControlType": "Button",
                    "processors": "",
                    "interactions": "",
                    "initialStateCheck": false
                },
                {
                    "name": "Sprint",
                    "type": "PassThrough",
                    "id": "980e881e-182c-404c-8cbf-3d09fdb48fef",
                    "expectedControlType": "",
                    "processors": "",
                    "interactions": "",
                    "initialStateCheck": false
                },
                {
                    "name": "SwitchCusor",
                    "type": "Button",
                    "id": "920e3369-aaf2-4eae-b7f5-831d8bff1326",
                    "expectedControlType": "Button",
                    "processors": "",
                    "interactions": "",
                    "initialStateCheck": false
                },
                {
                    "name": "Aim",
                    "type": "Button",
                    "id": "3205e60b-ca6e-4ba8-aa0d-fdd074f1f464",
                    "expectedControlType": "Button",
                    "processors": "",
                    "interactions": "",
                    "initialStateCheck": false
                },
                {
                    "name": "Skill_1",
                    "type": "PassThrough",
                    "id": "1e89befa-d6e3-4a13-a1fe-1577c648f21e",
                    "expectedControlType": "",
                    "processors": "",
                    "interactions": "",
                    "initialStateCheck": false
                },
                {
                    "name": "Skill_2",
                    "type": "PassThrough",
                    "id": "0afd9ca4-8a39-48ac-bd50-b208fb8b8d34",
                    "expectedControlType": "",
                    "processors": "",
                    "interactions": "",
                    "initialStateCheck": false
                },
                {
                    "name": "Skill_3",
                    "type": "PassThrough",
                    "id": "d0c50507-a93c-4d31-a016-afdd79de3b91",
                    "expectedControlType": "",
                    "processors": "",
                    "interactions": "",
                    "initialStateCheck": false
                },
                {
                    "name": "MainAction",
                    "type": "PassThrough",
                    "id": "259d080f-3985-4c9b-9a9c-ff68adf6f7d4",
                    "expectedControlType": "",
                    "processors": "",
                    "interactions": "",
                    "initialStateCheck": false
                },
                {
                    "name": "ThrowAction",
                    "type": "PassThrough",
                    "id": "102ce4f9-8c14-400f-bcba-16630b09da47",
                    "expectedControlType": "",
                    "processors": "",
                    "interactions": "",
                    "initialStateCheck": false
                },
                {
                    "name": "SpecialAction",
                    "type": "Button",
                    "id": "890b894e-2b62-46f2-b1b4-e9662aedd889",
                    "expectedControlType": "Button",
                    "processors": "",
                    "interactions": "",
                    "initialStateCheck": false
                },
                {
                    "name": "Reload",
                    "type": "Button",
                    "id": "a006b16f-b49a-4550-ad73-faf02e28306d",
                    "expectedControlType": "Button",
                    "processors": "",
                    "interactions": "",
                    "initialStateCheck": false
                },
                {
                    "name": "SwitchCameraSide",
                    "type": "Button",
                    "id": "174ec174-e635-4bc4-81cf-98962e0c4efd",
                    "expectedControlType": "Button",
                    "processors": "",
                    "interactions": "",
                    "initialStateCheck": false
                },
                {
                    "name": "ToggleInventory",
                    "type": "Button",
                    "id": "0ee48a19-3a4f-461a-b8cf-7e60e4dedf60",
                    "expectedControlType": "Button",
                    "processors": "",
                    "interactions": "",
                    "initialStateCheck": false
                },
                {
                    "name": "InteractItem",
                    "type": "Button",
                    "id": "27b21683-84a9-449c-bc34-c24efdc845bd",
                    "expectedControlType": "Button",
                    "processors": "",
                    "interactions": "",
                    "initialStateCheck": false
                }
            ],
            "bindings": [
                {
                    "name": "WASD",
                    "id": "b7594ddb-26c9-4ba2-bd5a-901468929edc",
                    "path": "2DVector(mode=1)",
                    "interactions": "",
                    "processors": "",
                    "groups": "",
                    "action": "Move",
                    "isComposite": true,
                    "isPartOfComposite": false
                },
                {
                    "name": "up",
                    "id": "2063a8b5-6a45-43de-851b-65f3d46e7b58",
                    "path": "<Keyboard>/w",
                    "interactions": "",
                    "processors": "",
                    "groups": "KeyboardMouse",
                    "action": "Move",
                    "isComposite": false,
                    "isPartOfComposite": true
                },
                {
                    "name": "down",
                    "id": "64e4d037-32e1-4fb9-80e4-fc7330404dfe",
                    "path": "<Keyboard>/s",
                    "interactions": "",
                    "processors": "",
                    "groups": "KeyboardMouse",
                    "action": "Move",
                    "isComposite": false,
                    "isPartOfComposite": true
                },
                {
                    "name": "left",
                    "id": "0fce8b11-5eab-4e4e-a741-b732e7b20873",
                    "path": "<Keyboard>/a",
                    "interactions": "",
                    "processors": "",
                    "groups": "KeyboardMouse",
                    "action": "Move",
                    "isComposite": false,
                    "isPartOfComposite": true
                },
                {
                    "name": "right",
                    "id": "7bdda0d6-57a8-47c8-8238-8aecf3110e47",
                    "path": "<Keyboard>/d",
                    "interactions": "",
                    "processors": "",
                    "groups": "KeyboardMouse",
                    "action": "Move",
                    "isComposite": false,
                    "isPartOfComposite": true
                },
                {
                    "name": "up",
                    "id": "bb94b405-58d3-4998-8535-d705c1218a98",
                    "path": "<Keyboard>/upArrow",
                    "interactions": "",
                    "processors": "",
                    "groups": "KeyboardMouse",
                    "action": "Move",
                    "isComposite": false,
                    "isPartOfComposite": true
                },
                {
                    "name": "down",
                    "id": "929d9071-7dd0-4368-9743-6793bb98087e",
                    "path": "<Keyboard>/downArrow",
                    "interactions": "",
                    "processors": "",
                    "groups": "KeyboardMouse",
                    "action": "Move",
                    "isComposite": false,
                    "isPartOfComposite": true
                },
                {
                    "name": "left",
                    "id": "28abadba-06ff-4d37-bb70-af2f1e35a3b9",
                    "path": "<Keyboard>/leftArrow",
                    "interactions": "",
                    "processors": "",
                    "groups": "KeyboardMouse",
                    "action": "Move",
                    "isComposite": false,
                    "isPartOfComposite": true
                },
                {
                    "name": "right",
                    "id": "45f115b6-9b4f-4ba8-b500-b94c93bf7d7e",
                    "path": "<Keyboard>/rightArrow",
                    "interactions": "",
                    "processors": "",
                    "groups": "KeyboardMouse",
                    "action": "Move",
                    "isComposite": false,
                    "isPartOfComposite": true
                },
                {
                    "name": "",
                    "id": "e2f9aa65-db06-4c5b-a2e9-41bc8acb9517",
                    "path": "<Gamepad>/leftStick",
                    "interactions": "",
                    "processors": "StickDeadzone",
                    "groups": "Gamepad",
                    "action": "Move",
                    "isComposite": false,
                    "isPartOfComposite": false
                },
                {
                    "name": "",
                    "id": "ed66cbff-2900-4a62-8896-696503cfcd31",
                    "path": "<Pointer>/delta",
                    "interactions": "",
                    "processors": "InvertVector2(invertX=false)",
                    "groups": "KeyboardMouse",
                    "action": "Look",
                    "isComposite": false,
                    "isPartOfComposite": false
                },
                {
                    "name": "",
                    "id": "d1d171b6-19d8-47a6-ba3a-71b6a8e7b3c0",
                    "path": "<Gamepad>/rightStick",
                    "interactions": "",
                    "processors": "InvertVector2(invertX=false),StickDeadzone,ScaleVector2(x=300,y=300)",
                    "groups": "Gamepad",
                    "action": "Look",
                    "isComposite": false,
                    "isPartOfComposite": false
                },
                {
                    "name": "",
                    "id": "1bd55a0b-761e-4ae4-89ae-8ec127e08a29",
                    "path": "<Keyboard>/space",
                    "interactions": "",
                    "processors": "",
                    "groups": "KeyboardMouse",
                    "action": "Jump",
                    "isComposite": false,
                    "isPartOfComposite": false
                },
                {
                    "name": "",
                    "id": "dc65b89f-9bd3-43fb-92af-d0d87ba5faa4",
                    "path": "<Keyboard>/leftShift",
                    "interactions": "",
                    "processors": "",
                    "groups": "KeyboardMouse",
                    "action": "Sprint",
                    "isComposite": false,
                    "isPartOfComposite": false
                },
                {
                    "name": "",
                    "id": "c8fcd86e-dcfd-4f88-8e93-b638cdbf3320",
                    "path": "<Gamepad>/leftTrigger",
                    "interactions": "",
                    "processors": "",
                    "groups": "Gamepad",
                    "action": "Sprint",
                    "isComposite": false,
                    "isPartOfComposite": false
                },
                {
                    "name": "",
                    "id": "6e4a2dfe-84ef-440c-9282-18881660e5b4",
                    "path": "<Keyboard>/enter",
                    "interactions": "",
                    "processors": "",
                    "groups": "",
                    "action": "SwitchCusor",
                    "isComposite": false,
                    "isPartOfComposite": false
                },
                {
                    "name": "",
                    "id": "63831bbd-d22c-46eb-a640-477f06de202e",
                    "path": "<Mouse>/rightButton",
                    "interactions": "",
                    "processors": "",
                    "groups": "KeyboardMouse",
                    "action": "Aim",
                    "isComposite": false,
                    "isPartOfComposite": false
                },
                {
                    "name": "",
                    "id": "b9729728-12b0-4e49-abd0-cacef8ca1f37",
                    "path": "<Keyboard>/1",
                    "interactions": "",
                    "processors": "",
                    "groups": "KeyboardMouse",
                    "action": "Skill_1",
                    "isComposite": false,
                    "isPartOfComposite": false
                },
                {
                    "name": "",
                    "id": "fbfb7d57-a910-4f6a-b9ea-8514d81c5ab7",
                    "path": "<Keyboard>/q",
                    "interactions": "",
                    "processors": "",
                    "groups": "KeyboardMouse",
                    "action": "Skill_2",
                    "isComposite": false,
                    "isPartOfComposite": false
                },
                {
                    "name": "",
                    "id": "429f1147-cfeb-464f-9bdf-9427a8b4f2cb",
                    "path": "<Keyboard>/c",
                    "interactions": "",
                    "processors": "",
                    "groups": "KeyboardMouse",
                    "action": "Skill_3",
                    "isComposite": false,
                    "isPartOfComposite": false
                },
                {
                    "name": "",
                    "id": "0cdf17d7-29fc-4da1-96e8-e8d4e372dc51",
                    "path": "<Mouse>/leftButton",
                    "interactions": "",
                    "processors": "",
                    "groups": "KeyboardMouse",
                    "action": "MainAction",
                    "isComposite": false,
                    "isPartOfComposite": false
                },
                {
                    "name": "",
                    "id": "8b7e9196-be14-4114-859f-d3737423c1b7",
                    "path": "<Keyboard>/g",
                    "interactions": "",
                    "processors": "",
                    "groups": "KeyboardMouse",
                    "action": "ThrowAction",
                    "isComposite": false,
                    "isPartOfComposite": false
                },
                {
                    "name": "",
                    "id": "994df500-cae4-470e-a29d-7624ad3ee878",
                    "path": "<Keyboard>/e",
                    "interactions": "",
                    "processors": "",
                    "groups": "KeyboardMouse",
                    "action": "SpecialAction",
                    "isComposite": false,
                    "isPartOfComposite": false
                },
                {
                    "name": "",
                    "id": "8e85612e-deb4-40db-b416-fe59e911e6fd",
                    "path": "<Keyboard>/r",
                    "interactions": "",
                    "processors": "",
                    "groups": "KeyboardMouse",
                    "action": "Reload",
                    "isComposite": false,
                    "isPartOfComposite": false
                },
                {
                    "name": "",
                    "id": "30076109-af5c-4caf-9e9e-d211cbdf684e",
                    "path": "<Keyboard>/backquote",
                    "interactions": "",
                    "processors": "",
                    "groups": "",
                    "action": "SwitchCameraSide",
                    "isComposite": false,
                    "isPartOfComposite": false
                },
                {
                    "name": "",
                    "id": "5de8a7e3-be9e-4320-917f-c4bafaea1481",
                    "path": "<Keyboard>/tab",
                    "interactions": "",
                    "processors": "",
                    "groups": "KeyboardMouse",
                    "action": "ToggleInventory",
                    "isComposite": false,
                    "isPartOfComposite": false
                },
                {
                    "name": "",
                    "id": "40ec521d-59b3-4232-bd7a-13b64e49c01d",
                    "path": "<Keyboard>/f",
                    "interactions": "",
                    "processors": "",
                    "groups": "KeyboardMouse",
                    "action": "InteractItem",
                    "isComposite": false,
                    "isPartOfComposite": false
                }
            ]
        }
    ],
    "controlSchemes": [
        {
            "name": "KeyboardMouse",
            "bindingGroup": "KeyboardMouse",
            "devices": [
                {
                    "devicePath": "<Keyboard>",
                    "isOptional": false,
                    "isOR": false
                },
                {
                    "devicePath": "<Mouse>",
                    "isOptional": false,
                    "isOR": false
                }
            ]
        },
        {
            "name": "Gamepad",
            "bindingGroup": "Gamepad",
            "devices": [
                {
                    "devicePath": "<Gamepad>",
                    "isOptional": true,
                    "isOR": false
                },
                {
                    "devicePath": "<XInputController>",
                    "isOptional": true,
                    "isOR": false
                },
                {
                    "devicePath": "<DualShockGamepad>",
                    "isOptional": true,
                    "isOR": false
                }
            ]
        },
        {
            "name": "Xbox Controller",
            "bindingGroup": "Xbox Controller",
            "devices": []
        },
        {
            "name": "PS4 Controller",
            "bindingGroup": "PS4 Controller",
            "devices": []
        }
    ]
}