%YAML 1.1
%TAG !u! tag:unity3d.com,2011:
--- !u!21 &2100000
Material:
  serializedVersion: 8
  m_ObjectHideFlags: 0
  m_CorrespondingSourceObject: {fileID: 0}
  m_PrefabInstance: {fileID: 0}
  m_PrefabAsset: {fileID: 0}
  m_Name: Roots01
  m_Shader: {fileID: 4800000, guid: d9d09221179189a449fe37a0ddad2931, type: 3}
  m_ValidKeywords:
  - _BASEWINDCHANNEL_B
  - _LAYERCHANNEL_G
  - _VERTEXCOLORCHANNEL_RGBA
  m_InvalidKeywords:
  - _BLENDNORMALS_ON
  - _DEPOSITCHANNEL_R
  - _NORMALMAP
  m_LightmapFlags: 4
  m_EnableInstancingVariants: 1
  m_DoubleSidedGI: 0
  m_CustomRenderQueue: -1
  stringTagMap: {}
  disabledShaderPasses: []
  m_SavedProperties:
    serializedVersion: 3
    m_TexEnvs:
    - _BumpMap:
        m_Texture: {fileID: 2800000, guid: ff818f3ff820b4648acd4f40ff150749, type: 3}
        m_Scale: {x: 1, y: 1}
        m_Offset: {x: 0, y: 0}
    - _DepositMask:
        m_Texture: {fileID: 2800000, guid: 4a03cded141603943a753e729e6d9ee2, type: 3}
        m_Scale: {x: 1, y: 1}
        m_Offset: {x: 0, y: 0}
    - _DetailAlbedoMap:
        m_Texture: {fileID: 0}
        m_Scale: {x: 1, y: 1}
        m_Offset: {x: 0, y: 0}
    - _DetailMask:
        m_Texture: {fileID: 0}
        m_Scale: {x: 1, y: 1}
        m_Offset: {x: 0, y: 0}
    - _DetailMetallicGlossMap:
        m_Texture: {fileID: 2800000, guid: 8d961c07e5665584094383581d95e88e, type: 3}
        m_Scale: {x: 1, y: 1}
        m_Offset: {x: 0, y: 0}
    - _DetailNormalMap:
        m_Texture: {fileID: 2800000, guid: fcc0f7f30aa29f44e831dfb556f69df4, type: 3}
        m_Scale: {x: 1, y: 1}
        m_Offset: {x: 0, y: 0}
    - _DetailOcclusionMap:
        m_Texture: {fileID: 0}
        m_Scale: {x: 1, y: 1}
        m_Offset: {x: 0, y: 0}
    - _EmissionMap:
        m_Texture: {fileID: 0}
        m_Scale: {x: 0.5, y: 0.1}
        m_Offset: {x: 0, y: 0}
    - _LayerMask:
        m_Texture: {fileID: 2800000, guid: e1f9e4b4f78e10041804ffee938870e2, type: 3}
        m_Scale: {x: 1.06, y: 1}
        m_Offset: {x: 0, y: 0}
    - _MainTex:
        m_Texture: {fileID: 2800000, guid: 3d67dbcf5e3ac28459a9ae89189bd50d, type: 3}
        m_Scale: {x: 1, y: 1}
        m_Offset: {x: 0, y: 0}
    - _MetallicGlossMap:
        m_Texture: {fileID: 2800000, guid: 9b90f87fd4161d84cbe99dbd8e9bad23, type: 3}
        m_Scale: {x: 0.3, y: 0.3}
        m_Offset: {x: 0, y: 0}
    - _MetallicROcclusionGSmoothnessA:
        m_Texture: {fileID: 2800000, guid: 8b21e2f6f7fe3654bbf58e56af927dc9, type: 3}
        m_Scale: {x: 1, y: 1}
        m_Offset: {x: 0, y: 0}
    - _OcclusionMap:
        m_Texture: {fileID: 2800000, guid: 8e1e354c3d6520441a16e2c9815f363f, type: 3}
        m_Scale: {x: 0.3, y: 0.3}
        m_Offset: {x: 0, y: 0}
    - _ParallaxMap:
        m_Texture: {fileID: 0}
        m_Scale: {x: 1, y: 1}
        m_Offset: {x: 0, y: 0}
    - _texcoord:
        m_Texture: {fileID: 0}
        m_Scale: {x: 1, y: 1}
        m_Offset: {x: 0, y: 0}
    m_Ints: []
    m_Floats:
    - _2ndNormalPower: 1
    - _AlphaCutoff: 0.5
    - _BaseWindChannel: 2
    - _BlendNormals: 1
    - _BumpScale: 1
    - _Contrast: 100
    - _Contrast2: 0
    - _Cutoff: 0.5
    - _DepositChannel: 0
    - _DepositContrast: 1
    - _DepositPosition: 1.5
    - _DepositPower: 0.759
    - _DepositThreshold: 16.8
    - _DetailNormalMapScale: 1
    - _DstBlend: 0
    - _Float1: 6.38
    - _Float2: 0
    - _GlobalNoiseAmplitude: 1
    - _GlobalNoiseAmplitude1: 5
    - _GlobalNoisePower: 1
    - _GlobalNoiseScale: 2
    - _GlobalNoiseScale1: 1
    - _GlobalNoiseSpeed: 20
    - _GlobalNoiseSpeed1: 1
    - _GlossMapScale: 1
    - _Glossiness: 0.5
    - _GlossyReflections: 1
    - _InvertMask: 0
    - _LayerChannel: 1
    - _LayerContrast: 0
    - _LayerMetallicPower: 0.5
    - _LayerOcclusionPower: 1
    - _LayerPosition: 0
    - _LayerPower: 0.292
    - _LayerSmoothnessPower: 0.5
    - _LayerThreshold: 50
    - _Metallic: 0
    - _MetallicPower: 0.5
    - _Mode: 0
    - _NormalPower: 1
    - _OcclusionPower: 0.939
    - _OcclusionStrength: 1
    - _Parallax: 0.02
    - _PosContrast: 10
    - _Position: 6.2
    - _SeeVertexColor: 0
    - _SeeVertexColor1: 0
    - _SmoothnessPower: 0.5
    - _SmoothnessTextureChannel: 0
    - _SpecularHighlights: 1
    - _SrcBlend: 1
    - _Tiling: 0.5
    - _TrunkWindAmplitude: 0.5
    - _TrunkWindPower: 1
    - _UVSec: 0
    - _UseVertexColor: 0
    - _VertexColorChannel: 0
    - _WindAmplitude: 1
    - _WindBurstsPower: 10
    - _WindBurstsScale: 1
    - _WindBurstsSpeed: 50
    - _WindDebugView: 0
    - _WindMultiplier: 0
    - _WindMultiplier1: 1
    - _WindPosContrast: 6.5
    - _WindPosition: 6
    - _WindPower: 0.01
    - _WindSpeed: 1
    - _WindTrunkContrast: 0
    - _WindTrunkPosition: 0
    - _ZWrite: 1
    - __dirty: 0
    m_Colors:
    - _2ndColor: {r: 0, g: 0, b: 0, a: 1}
    - _Color: {r: 0.4245283, g: 0.4245283, b: 0.4245283, a: 1}
    - _EmissionColor: {r: 0, g: 0, b: 0, a: 1}
  m_BuildTextureStacks: []
