%YAML 1.1
%TAG !u! tag:unity3d.com,2011:
--- !u!114 &11400000
MonoBehaviour:
  m_ObjectHideFlags: 0
  m_CorrespondingSourceObject: {fileID: 0}
  m_PrefabInstance: {fileID: 0}
  m_PrefabAsset: {fileID: 0}
  m_GameObject: {fileID: 0}
  m_Enabled: 1
  m_EditorHideFlags: 0
  m_Script: {fileID: 11500000, guid: 7f05da06e57c3e849a9faf0ffb7f67d1, type: 3}
  m_Name: 12-Hellcat
  m_EditorClassIdentifier: 
  Id: 0
  prefab: {fileID: 3002581425906469914, guid: 72f134b94a7dd6447b3053a19dea7878, type: 3}
  icon: {fileID: 21300000, guid: dae33700bd23f76409a80bf78fdb8a42, type: 3}
  tooltipIcon: {fileID: 21300000, guid: dae33700bd23f76409a80bf78fdb8a42, type: 3}
  type: 2
  weaponIndex: 11
  amount: 1
  name: 12-Hellcat
  rarity: 2
  restoreHealthValue: 0
  description: slash
