%YAML 1.1
%TAG !u! tag:unity3d.com,2011:
--- !u!21 &2100000
Material:
  serializedVersion: 8
  m_ObjectHideFlags: 0
  m_CorrespondingSourceObject: {fileID: 0}
  m_PrefabInstance: {fileID: 0}
  m_PrefabAsset: {fileID: 0}
  m_Name: Grass01 AE (TVE Material)
  m_Shader: {fileID: 4800000, guid: 5bcf549c936e31b4999f2c7e28ba5e31, type: 3}
  m_ValidKeywords:
  - TVE_FEATURE_CLIP
  m_InvalidKeywords: []
  m_LightmapFlags: 0
  m_EnableInstancingVariants: 1
  m_DoubleSidedGI: 0
  m_CustomRenderQueue: 2450
  stringTagMap:
    NatureRendererInstancing: true
    RenderType: AlphaTest
  disabledShaderPasses:
  - TransparentBackface
  - TransparentBackfaceDebugDisplay
  - TransparentDepthPrepass
  - TransparentDepthPostpass
  m_SavedProperties:
    serializedVersion: 3
    m_TexEnvs:
    - _BumpMap:
        m_Texture: {fileID: 0}
        m_Scale: {x: 1, y: 1}
        m_Offset: {x: 0, y: 0}
    - _EmissiveTex:
        m_Texture: {fileID: 0}
        m_Scale: {x: 1, y: 1}
        m_Offset: {x: 0, y: 0}
    - _MainAlbedoTex:
        m_Texture: {fileID: 2800000, guid: f260bf73a8296534786c8f7e5bfb0acf, type: 3}
        m_Scale: {x: 1, y: 1}
        m_Offset: {x: 0, y: 0}
    - _MainMaskTex:
        m_Texture: {fileID: 0}
        m_Scale: {x: 1, y: 1}
        m_Offset: {x: 0, y: 0}
    - _MainNormalTex:
        m_Texture: {fileID: 0}
        m_Scale: {x: 1, y: 1}
        m_Offset: {x: 0, y: 0}
    - _MainTex:
        m_Texture: {fileID: 2800000, guid: f260bf73a8296534786c8f7e5bfb0acf, type: 3}
        m_Scale: {x: 1, y: 1}
        m_Offset: {x: 0, y: 0}
    - unity_Lightmaps:
        m_Texture: {fileID: 0}
        m_Scale: {x: 1, y: 1}
        m_Offset: {x: 0, y: 0}
    - unity_LightmapsInd:
        m_Texture: {fileID: 0}
        m_Scale: {x: 1, y: 1}
        m_Offset: {x: 0, y: 0}
    - unity_ShadowMasks:
        m_Texture: {fileID: 0}
        m_Scale: {x: 1, y: 1}
        m_Offset: {x: 0, y: 0}
    m_Ints: []
    m_Floats:
    - _AlphaClipValue: 0.25
    - _AlphaCutoff: 0.25
    - _AlphaFeatherValue: 0.5
    - _AlphaVariationValue: 0
    - _CategoryDetail: 0
    - _CategoryEmissive: 1
    - _CategoryGlobal: 1
    - _CategoryGradient: 1
    - _CategoryMain: 1
    - _CategoryMotion: 1
    - _CategoryNoise: 0
    - _CategoryOcclusion: 1
    - _CategoryPerspective: 1
    - _CategoryRender: 1
    - _CategorySizeFade: 1
    - _CategorySubsurface: 1
    - _ColorsMaskMaxValue: 0
    - _ColorsMaskMinValue: 0
    - _ColorsPositionMode: 0
    - _ColorsVariationValue: 0
    - _Cutoff: 0.25
    - _DetailBlendMode: 1
    - _DetailMode: 0
    - _DetailTypeMode: 0
    - _EmissiveFlagMode: 0
    - _ExtrasPositionMode: 0
    - _FadeCameraValue: 1
    - _FadeGlancingValue: 0
    - _GlobalAlpha: 1
    - _GlobalColors: 1
    - _GlobalEmissive: 1
    - _GlobalOverlay: 1
    - _GlobalSize: 1
    - _GlobalWetness: 1
    - _GradientMaxValue: 1
    - _GradientMinValue: 0.5
    - _HasEmissive: 1
    - _HasGradient: 1
    - _HasOcclusion: 1
    - _InteractionAmplitude: 1
    - _InteractionMaskValue: 1
    - _IsGrassShader: 1
    - _IsLeafShader: 1
    - _IsSubsurfaceShader: 1
    - _IsTVEShader: 1
    - _IsVersion: 700
    - _LayerColorsValue: 0
    - _LayerExtrasValue: 0
    - _LayerMotionValue: 0
    - _LayerReactValue: 0
    - _LayerVertexValue: 0
    - _MainNormalValue: 1
    - _MainOcclusionValue: 0
    - _MainSmoothnessValue: 0
    - _MessageGlobalsVariation: 0
    - _MessageMotionVariation: 0
    - _MessageSizeFade: 0
    - _MotionAmplitude_10: 1
    - _MotionAmplitude_20: 0.2
    - _MotionAmplitude_22: 0.2
    - _MotionAmplitude_32: 0.2
    - _MotionFacingValue: 1
    - _MotionNormalValue: 0
    - _MotionScale_10: 1
    - _MotionScale_20: 18
    - _MotionScale_32: 10
    - _MotionSpeed_10: 6
    - _MotionSpeed_20: 6
    - _MotionSpeed_32: 30
    - _MotionValue_20: 1
    - _MotionValue_30: 1
    - _MotionVariation_10: 3
    - _MotionVariation_20: 0
    - _MotionVariation_32: 10
    - _OverlayMaskMaxValue: 0.55
    - _OverlayMaskMinValue: 0.45
    - _OverlayVariationValue: 0
    - _PerspectiveAngleValue: 1
    - _PerspectiveNoiseValue: 0
    - _PerspectivePushValue: 0
    - _QueueControl: -1
    - _QueueOffset: 0
    - _RenderAmbient: 1
    - _RenderClip: 1
    - _RenderCoverage: 0
    - _RenderCull: 0
    - _RenderDecals: 0
    - _RenderDirect: 1
    - _RenderMode: 0
    - _RenderNormals: 0
    - _RenderPriority: 0
    - _RenderQueue: 0
    - _RenderSSR: 0
    - _RenderShadow: 1
    - _RenderSpecular: 1
    - _RenderZWrite: 1
    - _SizeFadeEndValue: 300
    - _SizeFadeMode: 1
    - _SizeFadeStartValue: 200
    - _SpaceGlobalLayers: 0
    - _SpaceGlobalLocals: 0
    - _SpaceGlobalPosition: 0
    - _SpaceMotionGlobals: 0
    - _SpaceMotionLocals: 0
    - _SpaceRenderFade: 0
    - _SubsurfaceAmbientValue: 0.2
    - _SubsurfaceAngleValue: 8
    - _SubsurfaceDiffusion: 0
    - _SubsurfaceDirectValue: 1
    - _SubsurfaceMaskMaxValue: 0.1
    - _SubsurfaceMaskMinValue: 0
    - _SubsurfaceNormalValue: 0
    - _SubsurfaceScatteringValue: 2
    - _SubsurfaceShadowValue: 1
    - _SubsurfaceValue: 1
    - _TransAmbient: 0.2
    - _TransDirect: 1
    - _TransNormal: 0
    - _TransScattering: 8
    - _TransShadow: 1
    - _TransStrength: 2
    - _VertexDataMode: 0
    - _VertexDynamicMode: 0
    - _VertexMasksMode: 0
    - _VertexOcclusionMaxValue: 1
    - _VertexOcclusionMinValue: 0
    - _VertexPivotMode: 1
    - _VertexRollingMode: 1
    - _VertexVariationMode: 1
    - _render_coverage: 0
    - _render_cull: 0
    - _render_dst: 0
    - _render_src: 1
    - _render_zw: 1
    m_Colors:
    - _AlphaMaskRemap: {r: 0, g: 0, b: 0, a: 0}
    - _Color: {r: 0.1448469, g: 0.2924528, b: 0.23013462, a: 1}
    - _ColorsMaskRemap: {r: 0, g: 0, b: 0, a: 0}
    - _DetailBlendRemap: {r: 0, g: 0, b: 0, a: 0}
    - _EmissionColor: {r: 1, g: 1, b: 1, a: 1}
    - _EmissiveColor: {r: 0.016687429, g: 0.14150941, b: 0.08463373, a: 0}
    - _EmissiveIntensityParams: {r: 1, g: 1, b: 1, a: 0}
    - _EmissiveUVs: {r: 1, g: 1, b: 0, a: 0}
    - _GradientColorOne: {r: 0.068262726, g: 0.24528301, b: 0.087931655, a: 1}
    - _GradientColorTwo: {r: 0.027901392, g: 0.1792453, b: 0.1440626, a: 1}
    - _GradientMaskRemap: {r: 0, g: 0, b: 0, a: 0}
    - _MainColor: {r: 0.1448469, g: 0.2924528, b: 0.23013462, a: 1}
    - _MainUVs: {r: 1, g: 1, b: 0, a: 0}
    - _MaxBoundsInfo: {r: 0.40352225, g: 0.27754754, b: 0.40352225, a: 0}
    - _MotionHighlightColor: {r: 2, g: 2, b: 2, a: 1}
    - _NoiseMaskRemap: {r: 0, g: 0, b: 0, a: 0}
    - _OverlayMaskRemap: {r: 0, g: 0, b: 0, a: 0}
    - _SubsurfaceColor: {r: 0.14548104, g: 0.16981131, b: 0.10493057, a: 1}
    - _SubsurfaceDiffusion_Asset: {r: 0, g: 0, b: 0, a: 0}
    - _SubsurfaceDiffusion_asset: {r: 0, g: 0, b: 0, a: 0}
    - _SubsurfaceMaskRemap: {r: 0, g: 0, b: 0, a: 0}
    - _VertexOcclusionColor: {r: 1, g: 1, b: 1, a: 1}
    - _VertexOcclusionRemap: {r: 0, g: 0, b: 0, a: 0}
    - _render_normals: {r: -1, g: -1, b: -1, a: 0}
  m_BuildTextureStacks: []
