%YAML 1.1
%TAG !u! tag:unity3d.com,2011:
--- !u!21 &2100000
Material:
  serializedVersion: 8
  m_ObjectHideFlags: 0
  m_CorrespondingSourceObject: {fileID: 0}
  m_PrefabInstance: {fileID: 0}
  m_PrefabAsset: {fileID: 0}
  m_Name: Grass_Anim (TVE Material)
  m_Shader: {fileID: 4800000, guid: 5bcf549c936e31b4999f2c7e28ba5e31, type: 3}
  m_ValidKeywords:
  - TVE_FEATURE_CLIP
  m_InvalidKeywords: []
  m_LightmapFlags: 0
  m_EnableInstancingVariants: 0
  m_DoubleSidedGI: 0
  m_CustomRenderQueue: 2450
  stringTagMap:
    DisableBatching: true
    NatureRendererInstancing: true
    RenderType: AlphaTest
  disabledShaderPasses:
  - TransparentBackface
  - TransparentBackfaceDebugDisplay
  - TransparentDepthPrepass
  - TransparentDepthPostpass
  m_SavedProperties:
    serializedVersion: 3
    m_TexEnvs:
    - _BumpMap:
        m_Texture: {fileID: 2800000, guid: 8f62808e9ebf44c8b0e69618ea63066b, type: 3}
        m_Scale: {x: 1, y: 1}
        m_Offset: {x: 0, y: 0}
    - _DetailAlbedoMap:
        m_Texture: {fileID: 0}
        m_Scale: {x: 1, y: 1}
        m_Offset: {x: 0, y: 0}
    - _DetailMask:
        m_Texture: {fileID: 0}
        m_Scale: {x: 1, y: 1}
        m_Offset: {x: 0, y: 0}
    - _DetailNormalMap:
        m_Texture: {fileID: 0}
        m_Scale: {x: 1, y: 1}
        m_Offset: {x: 0, y: 0}
    - _EmissionMap:
        m_Texture: {fileID: 0}
        m_Scale: {x: 1, y: 1}
        m_Offset: {x: 0, y: 0}
    - _EmissiveTex:
        m_Texture: {fileID: 0}
        m_Scale: {x: 1, y: 1}
        m_Offset: {x: 0, y: 0}
    - _MainAlbedoTex:
        m_Texture: {fileID: 2800000, guid: 0fc0d86c15de4a46b1c81c01416fc7fb, type: 3}
        m_Scale: {x: 1, y: 1}
        m_Offset: {x: 0, y: 0}
    - _MainMaskTex:
        m_Texture: {fileID: 2800000, guid: 27518846f60ebcc4ebd9474b1dc2ffe8, type: 3}
        m_Scale: {x: 1, y: 1}
        m_Offset: {x: 0, y: 0}
    - _MainNormalTex:
        m_Texture: {fileID: 2800000, guid: 8f62808e9ebf44c8b0e69618ea63066b, type: 3}
        m_Scale: {x: 1, y: 1}
        m_Offset: {x: 0, y: 0}
    - _MainTex:
        m_Texture: {fileID: 2800000, guid: 0fc0d86c15de4a46b1c81c01416fc7fb, type: 3}
        m_Scale: {x: 1, y: 1}
        m_Offset: {x: 0, y: 0}
    - _MetallicGlossMap:
        m_Texture: {fileID: 2800000, guid: afc0910a868b44c18b8eeff4042177b5, type: 3}
        m_Scale: {x: 1, y: 1}
        m_Offset: {x: 0, y: 0}
    - _NoiseTex:
        m_Texture: {fileID: 0}
        m_Scale: {x: 1, y: 1}
        m_Offset: {x: 0, y: 0}
    - _OcclusionMap:
        m_Texture: {fileID: 2800000, guid: afc0910a868b44c18b8eeff4042177b5, type: 3}
        m_Scale: {x: 1, y: 1}
        m_Offset: {x: 0, y: 0}
    - _ParallaxMap:
        m_Texture: {fileID: 0}
        m_Scale: {x: 1, y: 1}
        m_Offset: {x: 0, y: 0}
    - _tex4coord:
        m_Texture: {fileID: 0}
        m_Scale: {x: 1, y: 1}
        m_Offset: {x: 0, y: 0}
    - _texcoord:
        m_Texture: {fileID: 0}
        m_Scale: {x: 1, y: 1}
        m_Offset: {x: 0, y: 0}
    - unity_Lightmaps:
        m_Texture: {fileID: 0}
        m_Scale: {x: 1, y: 1}
        m_Offset: {x: 0, y: 0}
    - unity_LightmapsInd:
        m_Texture: {fileID: 0}
        m_Scale: {x: 1, y: 1}
        m_Offset: {x: 0, y: 0}
    - unity_ShadowMasks:
        m_Texture: {fileID: 0}
        m_Scale: {x: 1, y: 1}
        m_Offset: {x: 0, y: 0}
    m_Ints: []
    m_Floats:
    - _AdvancedCat: 0
    - _AlphaClipValue: 0.25
    - _AlphaCutoff: 0.25
    - _AlphaCutoffValue: 0.25
    - _AlphaFeatherValue: 0.5
    - _AlphaVariationValue: 0
    - _Banner: 0
    - _BatchingMessage: 0
    - _BillboardCat: 0
    - _BillboardFadeHValue: 0
    - _BillboardFadeVValue: 0
    - _BumpScale: 1
    - _CategoryDetail: 0
    - _CategoryEmissive: 1
    - _CategoryGlobal: 1
    - _CategoryGradient: 1
    - _CategoryMain: 1
    - _CategoryMotion: 1
    - _CategoryNoise: 0
    - _CategoryOcclusion: 1
    - _CategoryPerspective: 1
    - _CategoryRender: 1
    - _CategoryRendering: 0
    - _CategorySizeFade: 1
    - _CategorySubsurface: 1
    - _ColorsMaskMaxValue: 1
    - _ColorsMaskMinValue: 0
    - _ColorsMaskValue: 0
    - _ColorsPositionMode: 0
    - _ColorsVariationValue: 0
    - _Cutoff: 0.25
    - _DetailBlendMode: 1
    - _DetailCat: 0
    - _DetailMapsMode: 0
    - _DetailMaskContrast: 0
    - _DetailMode: 0
    - _DetailNormalMapScale: 1
    - _DetailSpace: 0
    - _DetailTypeMode: 0
    - _DstBlend: 0
    - _EmissiveCat: 1
    - _EmissiveFlagMode: 0
    - _ExtrasPositionMode: 0
    - _FadeCat: 0
    - _FadeSpace: 0
    - _GlobalAlpha: 1
    - _GlobalCat: 1
    - _GlobalColors: 1
    - _GlobalEmissive: 1
    - _GlobalHealthiness: 1
    - _GlobalLeaves: 1
    - _GlobalOverlay: 1
    - _GlobalSize: 1
    - _GlobalSizeFade: 0
    - _GlobalSpace: 0
    - _GlobalWetness: 1
    - _GlossMapScale: 1
    - _Glossiness: 0.5
    - _GlossyReflections: 1
    - _GradientCat: 1
    - _GradientMaxValue: 1
    - _GradientMinValue: 0
    - _GrassPerspectiveAngleValue: 0
    - _GrassPerspectiveNoiseValue: 0
    - _GrassPerspectivePushValue: 0
    - _HasEmissive: 1
    - _HasGradient: 1
    - _HasOcclusion: 1
    - _InteractionAmplitude: 1
    - _InteractionMaskValue: 1
    - _InteractionVariation: 0
    - _IsBalancedShader: 1
    - _IsForwardPathShader: 1
    - _IsGrassShader: 1
    - _IsLeafShader: 1
    - _IsLitShader: 1
    - _IsStandardShader: 0
    - _IsSubsurfaceShader: 1
    - _IsTVEShader: 1
    - _IsTarget40Shader: 1
    - _IsVersion: 700
    - _LayerColorsValue: 0
    - _LayerExtrasValue: 0
    - _LayerMotionValue: 0
    - _LayerReactValue: 0
    - _LayerVertexValue: 0
    - _LayersSpace: 0
    - _LeavesVariationValue: 0
    - _LocalAlpha: 1
    - _LocalLeaves: 1
    - _LocalSize: 1
    - _LocalSpace: 0
    - _MainCat: 1
    - _MainLightAngleValue: 8
    - _MainLightScatteringValue: 8
    - _MainMaskMaxValue: 1
    - _MainMaskMinValue: 0
    - _MainNormalValue: 1
    - _MainOcclusionValue: 0.5
    - _MainSmoothnessValue: 0.2
    - _MaskMode: 0
    - _MessageGlobalsVariation: 0
    - _MessageMotionVariation: 0
    - _MessageSizeFade: 0
    - _MessageTranslucencyHD: 0
    - _Metallic: 0
    - _Mode: 1
    - _MoiseCat: 0
    - _MotionAmplitude_10: 0.5
    - _MotionAmplitude_20: 0.1
    - _MotionAmplitude_30: 0.5
    - _MotionAmplitude_32: 0.1
    - _MotionCat: 1
    - _MotionNormalValue: 1
    - _MotionScale_10: 1
    - _MotionScale_20: 0
    - _MotionScale_30: 10
    - _MotionScale_32: 10
    - _MotionSpace: 0
    - _MotionSpeed_10: 6
    - _MotionSpeed_20: 6
    - _MotionSpeed_30: 8
    - _MotionSpeed_32: 30
    - _MotionValue_30: 1
    - _MotionVariation_10: 3
    - _MotionVariation_20: 5
    - _MotionVariation_30: 10
    - _MotionVariation_32: 10
    - _Motion_10: 1
    - _Motion_20: 1
    - _Motion_30: 1
    - _Motion_32: 1
    - _Motion_Interaction: 1
    - _NoiseCat: 1
    - _NoiseMaxValue: 1
    - _NoiseMinValue: 0
    - _NoiseScaleValue: 0.01
    - _ObjectDataMessage: 0
    - _ObjectMetallicValue: 0
    - _ObjectOcclusionValue: 0
    - _ObjectSmoothnessValue: 0
    - _OcclusionCat: 1
    - _OcclusionStrength: 0.5
    - _OverlayContrast: 0
    - _OverlayContrastValue: 4
    - _OverlayMaskMaxValue: 0.54890114
    - _OverlayMaskMinValue: 0.44999996
    - _OverlayVariation: 0
    - _OverlayVariationValue: 0
    - _Parallax: 0.02
    - _PerspectiveAngleValue: 1
    - _PerspectiveCat: 1
    - _PerspectiveNoiseValue: 0
    - _PerspectivePushValue: 0
    - _PivotsMessage: 0
    - _QueueControl: -1
    - _QueueOffset: 0
    - _ReceiveSpace: 0
    - _RenderAmbient: 1
    - _RenderBlend: 0
    - _RenderClip: 1
    - _RenderCoverage: 0
    - _RenderCull: 0
    - _RenderDecals: 0
    - _RenderDirect: 1
    - _RenderMode: 0
    - _RenderNormals: 0
    - _RenderPriority: 0
    - _RenderQueue: 0
    - _RenderSSR: 0
    - _RenderShadow: 1
    - _RenderSpecular: 1
    - _RenderZWrite: 1
    - _RenderingCat: 1
    - _SizeFadeCat: 1
    - _SizeFadeEndValue: 300
    - _SizeFadeMessage: 0
    - _SizeFadeMode: 0
    - _SizeFadeStartValue: 200
    - _SmoothnessTextureChannel: 0
    - _SpaceGlobalLayers: 0
    - _SpaceGlobalLocals: 0
    - _SpaceGlobalPosition: 0
    - _SpaceMotionGlobals: 0
    - _SpaceMotionHighlight: 0
    - _SpaceMotionLocals: 0
    - _SpaceRenderFade: 0
    - _SpaceRenderReceive: 0
    - _SpecularHighlights: 1
    - _SrcBlend: 1
    - _SubsurfaceAmbientValue: 0.2
    - _SubsurfaceAngleValue: 8
    - _SubsurfaceCat: 1
    - _SubsurfaceDiffusion: 3.5648174
    - _SubsurfaceDirectValue: 1
    - _SubsurfaceLightValue: 1
    - _SubsurfaceMaskMaxValue: 1
    - _SubsurfaceMaskMinValue: 0
    - _SubsurfaceMaskValue: 1
    - _SubsurfaceMaxValue: 0
    - _SubsurfaceMinValue: 0
    - _SubsurfaceNormalValue: 0
    - _SubsurfaceScatteringValue: 2
    - _SubsurfaceShadowValue: 1
    - _SubsurfaceValue: 1
    - _SubsurfaceViewValue: 1
    - _TransAmbient: 0.2
    - _TransDirect: 1
    - _TransNormal: 0
    - _TransNormalDistortion: 0
    - _TransScattering: 8
    - _TransShadow: 1
    - _TransStrength: 2
    - _Translucency: 2
    - _TranslucencyAmbientValue: 0.2
    - _TranslucencyDirectValue: 1
    - _TranslucencyHDMessage: 0
    - _TranslucencyIntensityValue: 1
    - _TranslucencyNormalValue: 0.1
    - _TranslucencyScatteringValue: 2
    - _TranslucencyShadowValue: 1
    - _UVSec: 0
    - _VariationGlobalsMessage: 0
    - _VariationMessage: 0
    - _VariationMotionMessage: 0
    - _VertexCat: 0
    - _VertexDataMode: 0
    - _VertexDynamicMode: 0
    - _VertexHeightValue: 1.7330613
    - _VertexMasksMode: 0
    - _VertexMotionMode: 0
    - _VertexMotionSpace: 0
    - _VertexOcclusionMaxValue: 0
    - _VertexOcclusionMinValue: 0
    - _VertexOcclusionValue: 0
    - _VertexPivotMode: 1
    - _VertexRadiusValue: 5.75935
    - _VertexRollingMode: 1
    - _VertexVariationMode: 1
    - _WorldDataMessage: 0
    - _ZWrite: 1
    - __dirty: 1
    - _material_batching: 0
    - _render_blend: 0
    - _render_coverage: 0
    - _render_cull: 0
    - _render_cutoff: 0.25
    - _render_dst: 0
    - _render_mode: 0
    - _render_normals: 0
    - _render_premul: 0
    - _render_priority: 0
    - _render_src: 1
    - _render_zw: 1
    - _subsurface_shadow: 1
    - _vertex_pivot_mode: 1
    m_Colors:
    - _AlphaMaskRemap: {r: 0, g: 0, b: 0, a: 0}
    - _Color: {r: 1, g: 1, b: 1, a: 1}
    - _ColorsMaskRemap: {r: 0, g: 0, b: 0, a: 0}
    - _DetailBlendRemap: {r: 0, g: 0, b: 0, a: 0}
    - _EmissionColor: {r: 0, g: 0, b: 0, a: 1}
    - _EmissiveColor: {r: 0, g: 0, b: 0, a: 0}
    - _EmissiveIntensityParams: {r: 1, g: 1, b: 1, a: 0}
    - _EmissiveUVs: {r: 1, g: 1, b: 0, a: 0}
    - _GradientColorOne: {r: 1, g: 1, b: 1, a: 1}
    - _GradientColorTwo: {r: 1, g: 1, b: 1, a: 1}
    - _GradientMaskRemap: {r: 0, g: 0, b: 0, a: 0}
    - _LeavesMaskRemap: {r: 0, g: 0, b: 0, a: 2}
    - _LocalColors: {r: 1, g: 1, b: 1, a: 1}
    - _MainColor: {r: 1, g: 1, b: 1, a: 1}
    - _MainUVs: {r: 1, g: 1, b: 0, a: 0}
    - _MaxBoundsInfo: {r: 5.75935, g: 1.7330613, b: 5.75935, a: 0}
    - _MotionHighlightColor: {r: 2, g: 2, b: 2, a: 1}
    - _NoiseColorOne: {r: 1, g: 1, b: 1, a: 1}
    - _NoiseColorTwo: {r: 1, g: 1, b: 1, a: 1}
    - _NoiseMaskRemap: {r: 0, g: 0, b: 0, a: 0}
    - _NoiseTintOne: {r: 1, g: 1, b: 1, a: 1}
    - _NoiseTintTwo: {r: 1, g: 1, b: 1, a: 1}
    - _OverlayMaskRemap: {r: 0.44999996, g: 0.54890114, b: 0, a: 0}
    - _SubsurfaceColor: {r: 0.33, g: 0.49, b: 0, a: 1}
    - _SubsurfaceDiffusion_Asset: {r: 2.2888926e+38, g: 1.2389358e-26, b: 7.69327e-37, a: 0.00018220427}
    - _SubsurfaceDiffusion_asset: {r: 2.2888926e+38, g: 1.2389358e-26, b: 7.69327e-37, a: 0.00018220427}
    - _SubsurfaceMaskRemap: {r: 0, g: 0, b: 0, a: 0}
    - _VertexOcclusionColor: {r: 0, g: 0, b: 0, a: 0}
    - _VertexOcclusionRemap: {r: 0, g: 0, b: 0, a: 0}
    - _render_normals: {r: -1, g: -1, b: -1, a: 0}
    - _render_normals_options: {r: -1, g: -1, b: -1, a: 0}
  m_BuildTextureStacks: []
