%YAML 1.1
%TAG !u! tag:unity3d.com,2011:
--- !u!21 &2100000
Material:
  serializedVersion: 8
  m_ObjectHideFlags: 0
  m_CorrespondingSourceObject: {fileID: 0}
  m_PrefabInstance: {fileID: 0}
  m_PrefabAsset: {fileID: 0}
  m_Name: Pine_Base (TVE Material)
  m_Shader: {fileID: 4800000, guid: d085bd08ca5fe5a4792e19b6523918c1, type: 3}
  m_ValidKeywords:
  - TVE_FEATURE_DETAIL
  m_InvalidKeywords: []
  m_LightmapFlags: 0
  m_EnableInstancingVariants: 0
  m_DoubleSidedGI: 0
  m_CustomRenderQueue: 2450
  stringTagMap:
    DisableBatching: true
    NatureRendererInstancing: true
    RenderType: AlphaTest
    UseExternalSettings: true
  disabledShaderPasses:
  - TransparentBackface
  - TransparentBackfaceDebugDisplay
  - TransparentDepthPrepass
  - TransparentDepthPostpass
  m_SavedProperties:
    serializedVersion: 3
    m_TexEnvs:
    - _AlbedoTex:
        m_Texture: {fileID: 2800000, guid: 5c410fbbeefa4a6b9c784a2545b806c8, type: 3}
        m_Scale: {x: 1, y: 1}
        m_Offset: {x: 0, y: 0}
    - _BumpMap:
        m_Texture: {fileID: 2800000, guid: 6de436a0c2534f4396bcc9d68af0d225, type: 3}
        m_Scale: {x: 1, y: 1}
        m_Offset: {x: 0, y: 0}
    - _DetailAlbedoMap:
        m_Texture: {fileID: 0}
        m_Scale: {x: 1, y: 1}
        m_Offset: {x: 0, y: 0}
    - _DetailMask:
        m_Texture: {fileID: 0}
        m_Scale: {x: 1, y: 1}
        m_Offset: {x: 0, y: 0}
    - _DetailNormalMap:
        m_Texture: {fileID: 0}
        m_Scale: {x: 1, y: 1}
        m_Offset: {x: 0, y: 0}
    - _EmissionMap:
        m_Texture: {fileID: 0}
        m_Scale: {x: 1, y: 1}
        m_Offset: {x: 0, y: 0}
    - _EmissiveTex:
        m_Texture: {fileID: 0}
        m_Scale: {x: 1, y: 1}
        m_Offset: {x: 0, y: 0}
    - _HeightTex:
        m_Texture: {fileID: 0}
        m_Scale: {x: 1, y: 1}
        m_Offset: {x: 0, y: 0}
    - _MainAlbedoTex:
        m_Texture: {fileID: 2800000, guid: 5c410fbbeefa4a6b9c784a2545b806c8, type: 3}
        m_Scale: {x: 1, y: 1}
        m_Offset: {x: 0, y: 0}
    - _MainMaskTex:
        m_Texture: {fileID: 2800000, guid: eae256999e24436a8343115b97284510, type: 3}
        m_Scale: {x: 1, y: 1}
        m_Offset: {x: 0, y: 0}
    - _MainNormalTex:
        m_Texture: {fileID: 2800000, guid: 6de436a0c2534f4396bcc9d68af0d225, type: 3}
        m_Scale: {x: 1, y: 1}
        m_Offset: {x: 0, y: 0}
    - _MainTex:
        m_Texture: {fileID: 2800000, guid: 5c410fbbeefa4a6b9c784a2545b806c8, type: 3}
        m_Scale: {x: 1, y: 1}
        m_Offset: {x: 0, y: 0}
    - _MaskTex:
        m_Texture: {fileID: 2800000, guid: eae256999e24436a8343115b97284510, type: 3}
        m_Scale: {x: 1, y: 1}
        m_Offset: {x: 0, y: 0}
    - _MetallicGlossMap:
        m_Texture: {fileID: 0}
        m_Scale: {x: 1, y: 1}
        m_Offset: {x: 0, y: 0}
    - _MetallicTex:
        m_Texture: {fileID: 0}
        m_Scale: {x: 1, y: 1}
        m_Offset: {x: 0, y: 0}
    - _NormalTex:
        m_Texture: {fileID: 2800000, guid: 6de436a0c2534f4396bcc9d68af0d225, type: 3}
        m_Scale: {x: 1, y: 1}
        m_Offset: {x: 0, y: 0}
    - _OcclusionMap:
        m_Texture: {fileID: 0}
        m_Scale: {x: 1, y: 1}
        m_Offset: {x: 0, y: 0}
    - _OcclusionTex:
        m_Texture: {fileID: 0}
        m_Scale: {x: 1, y: 1}
        m_Offset: {x: 0, y: 0}
    - _ParallaxMap:
        m_Texture: {fileID: 0}
        m_Scale: {x: 1, y: 1}
        m_Offset: {x: 0, y: 0}
    - _SecondAlbedoTex:
        m_Texture: {fileID: 2800000, guid: 5cdda1c3dfca4b51b1076f10ebc66db8, type: 3}
        m_Scale: {x: 1, y: 1}
        m_Offset: {x: 0, y: 0}
    - _SecondMaskTex:
        m_Texture: {fileID: 2800000, guid: b1e55a1e15b24eaa91da64e768de93e5, type: 3}
        m_Scale: {x: 1, y: 1}
        m_Offset: {x: 0, y: 0}
    - _SecondNormalTex:
        m_Texture: {fileID: 2800000, guid: 75d805bcf9b940779c7253c74c1d84b7, type: 3}
        m_Scale: {x: 1, y: 1}
        m_Offset: {x: 0, y: 0}
    - _SecondPackedTex:
        m_Texture: {fileID: 0}
        m_Scale: {x: 1, y: 1}
        m_Offset: {x: 0, y: 0}
    - _SmoothnessTex:
        m_Texture: {fileID: 0}
        m_Scale: {x: 1, y: 1}
        m_Offset: {x: 0, y: 0}
    - _SubsurfaceTex:
        m_Texture: {fileID: 0}
        m_Scale: {x: 1, y: 1}
        m_Offset: {x: 0, y: 0}
    - _tex4coord:
        m_Texture: {fileID: 0}
        m_Scale: {x: 1, y: 1}
        m_Offset: {x: 0, y: 0}
    - _texcoord:
        m_Texture: {fileID: 0}
        m_Scale: {x: 1, y: 1}
        m_Offset: {x: 0, y: 0}
    - _texcoord2:
        m_Texture: {fileID: 0}
        m_Scale: {x: 1, y: 1}
        m_Offset: {x: 0, y: 0}
    - unity_Lightmaps:
        m_Texture: {fileID: 0}
        m_Scale: {x: 1, y: 1}
        m_Offset: {x: 0, y: 0}
    - unity_LightmapsInd:
        m_Texture: {fileID: 0}
        m_Scale: {x: 1, y: 1}
        m_Offset: {x: 0, y: 0}
    - unity_ShadowMasks:
        m_Texture: {fileID: 0}
        m_Scale: {x: 1, y: 1}
        m_Offset: {x: 0, y: 0}
    m_Ints: []
    m_Floats:
    - _AdvancedCat: 0
    - _AlphaClipValue: 0.5
    - _AlphaCutoff: 0.5
    - _AlphaCutoffValue: 0.5
    - _AlphaFeatherValue: 0.5
    - _Banner: 0
    - _BarkCategory: 0
    - _BarkMessage: 0
    - _BaseCategory: 0
    - _BatchingMessage: 0
    - _BillboardCat: 0
    - _BillboardFadeHValue: 0
    - _BillboardFadeVValue: 0
    - _BumpScale: 1
    - _CameraFadeValue: 1
    - _CategoryDetail: 1
    - _CategoryEmissive: 1
    - _CategoryGlobal: 1
    - _CategoryGradient: 0
    - _CategoryMain: 1
    - _CategoryMotion: 1
    - _CategoryNoise: 0
    - _CategoryOcclusion: 1
    - _CategoryPerspective: 0
    - _CategoryRender: 1
    - _CategoryRendering: 1
    - _CategorySizeFade: 0
    - _CategorySubsurface: 0
    - _ColorsMaskValue: 0
    - _Cutoff: 0.5
    - _DetailBlendMaxValue: 0.3
    - _DetailBlendMinValue: 0.2
    - _DetailBlendMode: 1
    - _DetailCat: 1
    - _DetailCoordMode: 1
    - _DetailMapsMode: 0
    - _DetailMaskContrast: 0.45
    - _DetailMaskInvertMode: 0
    - _DetailMaskMode: 0
    - _DetailMaskValue: 0
    - _DetailMeshValue: 0.6
    - _DetailMode: 1
    - _DetailNormalMapScale: 1
    - _DetailNormalValue: 1
    - _DetailShadingCat: 0
    - _DetailSpace: 0
    - _DetailTypeMode: 0
    - _DstBlend: 0
    - _EmissiveCat: 1
    - _EmissiveCoordMode: 0
    - _EmissiveFlagMode: 0
    - _EmissiveMode: 0
    - _ExtrasPositionMode: 0
    - _FadeCameraValue: 1
    - _FadeCat: 0
    - _FadeSpace: 0
    - _Float6: 0.5
    - _GlobalCat: 1
    - _GlobalColors: 1
    - _GlobalEmissive: 1
    - _GlobalHealthiness: 1
    - _GlobalLeaves: 1
    - _GlobalOverlay: 1
    - _GlobalSize: 1
    - _GlobalSizeFade: 0
    - _GlobalSpace: 0
    - _GlobalWetness: 1
    - _GlossMapScale: 1
    - _Glossiness: 0
    - _GlossyReflections: 1
    - _GradientCat: 0
    - _GradientHeightMaxValue: 1
    - _GradientHeightMinValue: 0
    - _GrassPerspectiveAngleValue: 0
    - _GrassPerspectiveNoiseValue: 0
    - _GrassPerspectivePushValue: 0
    - _HasEmissive: 1
    - _HasGradient: 0
    - _HasOcclusion: 1
    - _InteractionAmplitude: 0
    - _InteractionMaskValue: 1
    - _InteractionVariation: 0
    - _IsAnyPathShader: 1
    - _IsBalancedShader: 1
    - _IsBarkShader: 1
    - _IsForwardPathShader: 1
    - _IsHDPipeline: 1
    - _IsLeafShader: 1
    - _IsLitShader: 1
    - _IsStandardPipeline: 1
    - _IsStandardShader: 1
    - _IsTVEShader: 1
    - _IsTarget40Shader: 1
    - _IsUniversalPipeline: 1
    - _IsVersion: 700
    - _LayerExtrasValue: 0
    - _LayerMotionValue: 0
    - _LayerReactValue: 0
    - _LayerVertexValue: 0
    - _LayersSpace: 0
    - _LeafCategory: 0
    - _LeafMessage: 0
    - _LeavesVariationValue: 0
    - _LocalCat: 0
    - _LocalLeaves: 1
    - _LocalSize: 1
    - _LocalSpace: 0
    - _MainCat: 1
    - _MainColorMode: 1
    - _MainMaskMaxValue: 1
    - _MainMaskMinValue: 0
    - _MainMaskValue: 0
    - _MainMessage: 0
    - _MainMetallicValue: 0
    - _MainNormalValue: 0.5
    - _MainOcclusionValue: 1
    - _MainSmoothnessValue: 1
    - _MapsMode: 0
    - _MaskMode: 1
    - _MessageGlobalsVariation: 0
    - _MessageMotionVariation: 0
    - _MessageSizeFade: 0
    - _MessageTranslucencyHD: 0
    - _Metallic: 0
    - _Mode: 0
    - _MotionAmplitude_10: 0.2
    - _MotionAmplitude_20: 1
    - _MotionAmplitude_21: 0.1
    - _MotionAmplitude_22: 0.25
    - _MotionAmplitude_30: 0.2
    - _MotionAmplitude_32: 0
    - _MotionCat: 1
    - _MotionFacingValue: 0
    - _MotionScale_10: 0
    - _MotionScale_20: 0.2
    - _MotionScale_30: 10
    - _MotionScale_32: 20
    - _MotionSpace: 0
    - _MotionSpeed_10: 2
    - _MotionSpeed_20: 6
    - _MotionSpeed_30: 15
    - _MotionSpeed_32: 30
    - _MotionValue_20: 1
    - _MotionVariation_10: 0
    - _MotionVariation_20: 6
    - _MotionVariation_30: 10
    - _MotionVariation_32: 5
    - _Motion_10: 1
    - _Motion_20: 1
    - _Motion_30: 0
    - _Motion_32: 0
    - _Motion_Interaction: 1
    - _NoiseCat: 0
    - _ObjectDataMessage: 0
    - _ObjectMetallicValue: 0
    - _ObjectOcclusionValue: 0
    - _ObjectSmoothnessValue: 0
    - _ObjectThicknessValue: 0
    - _OcclusionCat: 1
    - _OcclusionStrength: 1
    - _OverlayBottomValue: 0.5
    - _OverlayContrast: 0
    - _OverlayContrastValue: 4
    - _OverlayMaskMaxValue: 0.489
    - _OverlayMaskMinValue: 0.368
    - _OverlayVariation: 0
    - _OverlayVariationValue: 0
    - _Parallax: 0.02
    - _PerspectiveCat: 0
    - _PivotsMessage: 0
    - _QueueControl: -1
    - _QueueOffset: 0
    - _ReceiveSpace: 0
    - _RenderAmbient: 1
    - _RenderBlend: 0
    - _RenderClip: 0
    - _RenderCoverage: 0
    - _RenderCull: 2
    - _RenderCutoff: 0.5
    - _RenderDecals: 0
    - _RenderDirect: 1
    - _RenderMode: 0
    - _RenderNormals: 0
    - _RenderPriority: 0
    - _RenderQueue: 0
    - _RenderSSR: 0
    - _RenderShadow: 1
    - _RenderSpecular: 1
    - _RenderZWrite: 1
    - _RenderingCat: 1
    - _SecondMetallicValue: 0
    - _SecondNormalValue: 1
    - _SecondOcclusionValue: 1
    - _SecondSmoothnessValue: 1
    - _SettingsCategory: 0
    - _ShaderMode: 1
    - _SizeFadeCat: 0
    - _SizeFadeEndValue: 300
    - _SizeFadeMessage: 0
    - _SizeFadeMode: 0
    - _SizeFadeStartValue: 200
    - _SmoothnessTextureChannel: 0
    - _SpaceGlobalLayers: 0
    - _SpaceGlobalLocals: 0
    - _SpaceGlobalPosition: 0
    - _SpaceMotionGlobals: 0
    - _SpaceMotionHighlight: 0
    - _SpaceMotionLocals: 0
    - _SpaceRenderFade: 0
    - _SpaceRenderReceive: 0
    - _SpecularHighlights: 1
    - _SrcBlend: 1
    - _SubsurfaceAmbientValue: 0.2
    - _SubsurfaceAngleValue: 2
    - _SubsurfaceCat: 0
    - _SubsurfaceDiffusion: 3.5648174
    - _SubsurfaceDirectValue: 1
    - _SubsurfaceLightValue: 1
    - _SubsurfaceMaskValue: 1
    - _SubsurfaceMaxValue: 1
    - _SubsurfaceMinValue: 0
    - _SubsurfaceMode: 0
    - _SubsurfaceNormalValue: 0
    - _SubsurfaceScatteringValue: 2
    - _SubsurfaceShadowValue: 1
    - _SubsurfaceValue: 1
    - _SubsurfaceViewValue: 1
    - _SurfaceCategory: 0
    - _SurfaceMessage: 0
    - _TranslucencyAmbientValue: 0.2
    - _TranslucencyDirectValue: 1
    - _TranslucencyHDMessage: 0
    - _TranslucencyIntensityValue: 1
    - _TranslucencyNormalValue: 0.1
    - _TranslucencyScatteringValue: 2
    - _TranslucencyShadowValue: 1
    - _UVSec: 0
    - _VariationGlobalsMessage: 0
    - _VariationMessage: 0
    - _VariationMotionMessage: 0
    - _VertexCat: 0
    - _VertexDataMode: 0
    - _VertexDynamicMode: 0
    - _VertexHeightValue: 21.573168
    - _VertexMasksMode: 0
    - _VertexMotionMode: 0
    - _VertexMotionSpace: 0
    - _VertexOcclusion: 0
    - _VertexOcclusionMaxValue: 0
    - _VertexOcclusionMinValue: 0
    - _VertexOcclusionValue: 0
    - _VertexPivotMode: 0
    - _VertexPivotModeFetch: 0
    - _VertexRadiusValue: 5.3272505
    - _VertexRollingMode: 1
    - _VertexVariationMode: 0
    - _WorldDataMessage: 0
    - _ZWrite: 1
    - __dirty: 1
    - _material_batching: 0
    - _render_blend: 0
    - _render_clip: 0
    - _render_coverage: 0
    - _render_cull: 2
    - _render_cutoff: 0.5
    - _render_dst: 0
    - _render_mode: 0
    - _render_normals: 0
    - _render_premul: 0
    - _render_priority: 0
    - _render_src: 1
    - _render_zw: 1
    - _vertex_pivot_mode: 0
    m_Colors:
    - _AlphaMaskRemap: {r: 0, g: 0, b: 0, a: 0}
    - _Color: {r: 1, g: 1, b: 1, a: 1}
    - _ColorsMaskRemap: {r: 0, g: 0, b: 0, a: 0}
    - _DetailBlendRemap: {r: 0, g: 0, b: 0, a: 0}
    - _DetailMaskRemap: {r: 0, g: 0, b: 0, a: 0}
    - _EmissionColor: {r: 0, g: 0, b: 0, a: 0}
    - _EmissiveColor: {r: 0, g: 0, b: 0, a: 0}
    - _EmissiveIntensityParams: {r: 1, g: 1, b: 1, a: 0}
    - _EmissiveUVs: {r: 1, g: 1, b: 0, a: 0}
    - _GradientColorOne: {r: 1, g: 1, b: 1, a: 1}
    - _GradientColorTwo: {r: 1, g: 1, b: 1, a: 1}
    - _GradientMaskRemap: {r: 0, g: 0, b: 0, a: 0}
    - _LeavesMaskRemap: {r: 0, g: 0, b: 0, a: 2}
    - _LocalColors: {r: 1, g: 1, b: 1, a: 1}
    - _MainColor: {r: 1, g: 1, b: 1, a: 1}
    - _MainUVs: {r: 1, g: 1, b: 0, a: 0}
    - _MaxBoundsInfo: {r: 5.3272505, g: 21.573168, b: 21.573168, a: 0}
    - _NoiseMaskRemap: {r: 0, g: 0, b: 0, a: 0}
    - _NoiseTintOne: {r: 1, g: 1, b: 1, a: 1}
    - _NoiseTintTwo: {r: 1, g: 1, b: 1, a: 1}
    - _OverlayMaskRemap: {r: 0, g: 0, b: 0, a: 0}
    - _SecondColor: {r: 1, g: 1, b: 1, a: 1}
    - _SecondUVs: {r: 1.2, g: 1, b: 0, a: 0}
    - _SubsurfaceColor: {r: 0.3315085, g: 0.490566, b: 0, a: 1}
    - _SubsurfaceDiffusion_Asset: {r: 2.2888926e+38, g: 1.2389358e-26, b: 7.69327e-37, a: 0.00018220427}
    - _SubsurfaceDiffusion_asset: {r: 2.2888926e+38, g: 1.2389358e-26, b: 7.69327e-37, a: 0.00018220427}
    - _SubsurfaceMaskRemap: {r: 0, g: 0, b: 0, a: 0}
    - _VertexOcclusionColor: {r: 0, g: 0, b: 0, a: 0}
    - _VertexOcclusionRemap: {r: 0, g: 0, b: 0, a: 0}
    - _render_normals: {r: -1, g: -1, b: -1, a: 0}
    - _render_normals_options: {r: -1, g: -1, b: -1, a: 0}
  m_BuildTextureStacks: []
