%YAML 1.1
%TAG !u! tag:unity3d.com,2011:
--- !u!114 &11400000
MonoBehaviour:
  m_ObjectHideFlags: 0
  m_CorrespondingSourceObject: {fileID: 0}
  m_PrefabInstance: {fileID: 0}
  m_PrefabAsset: {fileID: 0}
  m_GameObject: {fileID: 0}
  m_Enabled: 1
  m_EditorHideFlags: 0
  m_Script: {fileID: 11500000, guid: 78b2425a2284af743826c689403a4924, type: 3}
  m_Name: Compute Motion Facing
  m_EditorClassIdentifier: 
  m_functionInfo: "// Made with Amplify Shader Editor\n// Available at the Unity
    Asset Store - http://u3d.as/y3X \n/*ASEBEGIN\nVersion=18935\n1920;0;1920;1029;-841.7922;2201.966;1;True;False\nNode;AmplifyShaderEditor.RangedFloatNode;526;1792,-1472;Half;False;Constant;_Float0;Float
    0;0;0;Create;True;0;0;0;False;0;False;1;0;0;0;0;1;FLOAT;0\nNode;AmplifyShaderEditor.FunctionInput;418;384,-2432;Inherit;False;Vertex
    Position;3;0;False;1;0;FLOAT3;0.2,0,0;False;1;FLOAT3;0\nNode;AmplifyShaderEditor.LerpOp;524;1664,-1664;Inherit;False;3;0;FLOAT;1;False;1;FLOAT;0;False;2;FLOAT;0;False;1;FLOAT;0\nNode;AmplifyShaderEditor.RegisterLocalVarNode;419;768,-2432;Half;False;Input_Position;-1;True;1;0;FLOAT3;0,0,0;False;1;FLOAT3;0\nNode;AmplifyShaderEditor.GetLocalVarNode;520;384,-1536;Inherit;False;423;Input_DirectionOS;1;0;OBJECT;;False;1;FLOAT2;0\nNode;AmplifyShaderEditor.FunctionNode;525;2048,-1664;Inherit;False;Is
    Batched;-1;;1;5b40b68a21d90f04d8788ac1d606d090;0;2;7;FLOAT;0;False;6;FLOAT;0;False;1;FLOAT;0\nNode;AmplifyShaderEditor.ScaleAndOffsetNode;523;1280,-1664;Inherit;False;3;0;FLOAT;0;False;1;FLOAT;0.5;False;2;FLOAT;0.5;False;1;FLOAT;0\nNode;AmplifyShaderEditor.RegisterLocalVarNode;62;768,-2176;Half;False;Input_Mask;-1;True;1;0;FLOAT;0;False;1;FLOAT;0\nNode;AmplifyShaderEditor.RegisterLocalVarNode;423;768,-2304;Half;False;Input_DirectionOS;-1;True;1;0;FLOAT2;0,0;False;1;FLOAT2;0\nNode;AmplifyShaderEditor.FunctionInput;422;384,-2304;Inherit;False;DirectionOS;2;1;False;1;0;FLOAT2;0,0;False;1;FLOAT2;0\nNode;AmplifyShaderEditor.GetLocalVarNode;517;384,-1664;Inherit;False;419;Input_Position;1;0;OBJECT;;False;1;FLOAT3;0\nNode;AmplifyShaderEditor.BreakToComponentsNode;521;768,-1536;Inherit;False;FLOAT2;1;0;FLOAT2;0,0;False;16;FLOAT;0;FLOAT;1;FLOAT;2;FLOAT;3;FLOAT;4;FLOAT;5;FLOAT;6;FLOAT;7;FLOAT;8;FLOAT;9;FLOAT;10;FLOAT;11;FLOAT;12;FLOAT;13;FLOAT;14;FLOAT;15\nNode;AmplifyShaderEditor.NegateNode;531;640,-1536;Inherit;False;1;0;FLOAT2;0,0;False;1;FLOAT2;0\nNode;AmplifyShaderEditor.DynamicAppendNode;522;912,-1536;Inherit;False;FLOAT3;4;0;FLOAT;0;False;1;FLOAT;0;False;2;FLOAT;0;False;3;FLOAT;0;False;1;FLOAT3;0\nNode;AmplifyShaderEditor.DotProductOpNode;519;1104,-1664;Inherit;False;2;0;FLOAT3;0,0,0;False;1;FLOAT3;0,0,0;False;1;FLOAT;0\nNode;AmplifyShaderEditor.NormalizeNode;518;640,-1664;Inherit;False;False;1;0;FLOAT3;0,0,0;False;1;FLOAT3;0\nNode;AmplifyShaderEditor.GetLocalVarNode;527;1280,-1472;Inherit;False;62;Input_Mask;1;0;OBJECT;;False;1;FLOAT;0\nNode;AmplifyShaderEditor.FunctionInput;221;384,-2176;Inherit;False;Mask;1;2;False;1;0;FLOAT;0;False;1;FLOAT;0\nNode;AmplifyShaderEditor.SimpleMaxOpNode;532;1872,-1664;Inherit;False;2;0;FLOAT;0;False;1;FLOAT;0.001;False;1;FLOAT;0\nNode;AmplifyShaderEditor.FunctionOutput;421;2432,-1664;Inherit;False;True;-1;;0;False;1;0;FLOAT;0;False;1;FLOAT;0\nWireConnection;524;1;523;0\nWireConnection;524;2;527;0\nWireConnection;419;0;418;0\nWireConnection;525;7;532;0\nWireConnection;525;6;526;0\nWireConnection;523;0;519;0\nWireConnection;62;0;221;0\nWireConnection;423;0;422;0\nWireConnection;521;0;531;0\nWireConnection;531;0;520;0\nWireConnection;522;0;521;0\nWireConnection;522;2;521;1\nWireConnection;519;0;518;0\nWireConnection;519;1;522;0\nWireConnection;518;0;517;0\nWireConnection;532;0;524;0\nWireConnection;421;0;525;0\nASEEND*/\n//CHKSM=3DD1F5056EBF8AAF9719EBD32E49277C7C52F80E"
  m_functionName: 
  m_description: '

'
  m_additionalIncludes:
    m_additionalIncludes: []
    m_outsideIncludes: []
  m_additionalPragmas:
    m_additionalPragmas: []
    m_outsidePragmas: []
  m_additionalDirectives:
    m_validData: 0
    m_isDirty: 0
    m_moduleName: ' Additional Directives'
    m_independentModule: 1
    m_customEdited: 0
    m_additionalDirectives: []
    m_shaderFunctionDirectives: []
    m_nativeDirectives: []
    m_nativeDirectivesIndex: -1
    m_nativeDirectivesFoldout: 0
    m_directivesSaveItems: []
  m_nodeCategory: 0
  m_customNodeCategory: The Vegetation Engine
  m_previewPosition: 0
  m_hidden: 0
  m_url: 
