%YAML 1.1
%TAG !u! tag:unity3d.com,2011:
--- !u!114 &11400000
MonoBehaviour:
  m_ObjectHideFlags: 0
  m_CorrespondingSourceObject: {fileID: 0}
  m_PrefabInstance: {fileID: 0}
  m_PrefabAsset: {fileID: 0}
  m_GameObject: {fileID: 0}
  m_Enabled: 1
  m_EditorHideFlags: 0
  m_Script: {fileID: 11500000, guid: 1dfc894737be13a4d908e09acb6e1432, type: 3}
  m_Name: LeftArm_1
  m_EditorClassIdentifier: 
  partName: 1
  state: 0
  Id: 0
  prefab: {fileID: 0}
  bodyPartIndex: 0
  level: 0
  name: 
  rarity: 0
  description: 
