%YAML 1.1
%TAG !u! tag:unity3d.com,2011:
--- !u!21 &2100000
Material:
  serializedVersion: 8
  m_ObjectHideFlags: 0
  m_CorrespondingSourceObject: {fileID: 0}
  m_PrefabInstance: {fileID: 0}
  m_PrefabAsset: {fileID: 0}
  m_Name: WaterFall01
  m_Shader: {fileID: 4800000, guid: 26e13bf8edcdbbf41bf773cd53e524ea, type: 3}
  m_ValidKeywords: []
  m_InvalidKeywords: []
  m_LightmapFlags: 4
  m_EnableInstancingVariants: 0
  m_DoubleSidedGI: 0
  m_CustomRenderQueue: 2999
  stringTagMap: {}
  disabledShaderPasses: []
  m_SavedProperties:
    serializedVersion: 3
    m_TexEnvs:
    - _Albedo:
        m_Texture: {fileID: 0}
        m_Scale: {x: 1, y: 1}
        m_Offset: {x: 0, y: 0}
    - _BumpMap:
        m_Texture: {fileID: 0}
        m_Scale: {x: 1, y: 1}
        m_Offset: {x: 0, y: 0}
    - _DetailAlbedoMap:
        m_Texture: {fileID: 0}
        m_Scale: {x: 1, y: 1}
        m_Offset: {x: 0, y: 0}
    - _DetailMask:
        m_Texture: {fileID: 0}
        m_Scale: {x: 1, y: 1}
        m_Offset: {x: 0, y: 0}
    - _DetailNormalMap:
        m_Texture: {fileID: 0}
        m_Scale: {x: 1, y: 1}
        m_Offset: {x: 0, y: 0}
    - _EmissionMap:
        m_Texture: {fileID: 0}
        m_Scale: {x: 1, y: 1}
        m_Offset: {x: 0, y: 0}
    - _Foam:
        m_Texture: {fileID: 2800000, guid: df6a164e45088bb4eaee92b8d6ba7514, type: 3}
        m_Scale: {x: 1, y: 1}
        m_Offset: {x: 0, y: 0}
    - _FoamMask:
        m_Texture: {fileID: 2800000, guid: df6a164e45088bb4eaee92b8d6ba7514, type: 3}
        m_Scale: {x: 1, y: 1}
        m_Offset: {x: 0, y: 0}
    - _FoamNormal:
        m_Texture: {fileID: 2800000, guid: 3cfd62d17e8d12640ab92f82a01da633, type: 3}
        m_Scale: {x: 1, y: 1}
        m_Offset: {x: 0, y: 0}
    - _Foam_Texture:
        m_Texture: {fileID: 0}
        m_Scale: {x: 1, y: 1}
        m_Offset: {x: 0, y: 0}
    - _MainTex:
        m_Texture: {fileID: 0}
        m_Scale: {x: 1, y: 1}
        m_Offset: {x: 0, y: 0}
    - _MetallicGlossMap:
        m_Texture: {fileID: 0}
        m_Scale: {x: 1, y: 1}
        m_Offset: {x: 0, y: 0}
    - _Noise1:
        m_Texture: {fileID: 2800000, guid: 4707c01ec2975144c9f85fe1903d564c, type: 3}
        m_Scale: {x: 1, y: 1}
        m_Offset: {x: 0, y: 0}
    - _Normal:
        m_Texture: {fileID: 2800000, guid: 441623f4252ebce46ae8c693f725ca81, type: 3}
        m_Scale: {x: 1, y: 1}
        m_Offset: {x: 0, y: 0}
    - _NormalMap:
        m_Texture: {fileID: 2800000, guid: cc1fed187616b44458fb104365c8ecc3, type: 3}
        m_Scale: {x: 1, y: 1}
        m_Offset: {x: 0, y: 0}
    - _OcclusionMap:
        m_Texture: {fileID: 0}
        m_Scale: {x: 1, y: 1}
        m_Offset: {x: 0, y: 0}
    - _ParallaxMap:
        m_Texture: {fileID: 0}
        m_Scale: {x: 1, y: 1}
        m_Offset: {x: 0, y: 0}
    - _Texture0:
        m_Texture: {fileID: 2800000, guid: 441623f4252ebce46ae8c693f725ca81, type: 3}
        m_Scale: {x: 1, y: 1}
        m_Offset: {x: 0, y: 0}
    - _TextureSample3:
        m_Texture: {fileID: 0}
        m_Scale: {x: 1, y: 1}
        m_Offset: {x: 0, y: 0}
    - _WaterNormal:
        m_Texture: {fileID: 0}
        m_Scale: {x: 1, y: 1}
        m_Offset: {x: 0, y: 0}
    - _texcoord:
        m_Texture: {fileID: 0}
        m_Scale: {x: 1, y: 1}
        m_Offset: {x: 0, y: 0}
    m_Ints: []
    m_Floats:
    - _099: 0.07
    - _AlphaCutoff: 0.5
    - _BumpScale: 1
    - _CausticsScale: 0
    - _CausticsSpeed: 0
    - _ChromaticAberration: 0.1
    - _Cutoff: 0.5
    - _Depth: 2.6
    - _DetailNormalMapScale: 1
    - _DistanceFade: 5000
    - _DistanceFadeOffset: 5000
    - _DistanceMax: 50
    - _DistanceMin: 10
    - _DistortionPower1: 0.82
    - _DistortionSpeed1: 0.66
    - _DstBlend: 0
    - _EdgeDistance: 0.941
    - _EdgeLength: 50
    - _EdgePower: 1
    - _EdgesFade: 0.2
    - _Fade: -0.03
    - _Float3: 0.744
    - _Float6: 1
    - _FoamContrast: 5
    - _FoamDepth: 0
    - _FoamDistance: 0.57
    - _FoamFalloff: 0
    - _FoamPower: 0.93
    - _FoamScale: 5.41
    - _FoamSmoothness: 0
    - _FoamSpeed: 0.66
    - _GlobalNoiseScale: 5
    - _GlobalNoiseScale1: 1
    - _GlobalNoiseSpeed: 5
    - _GlobalNoiseSpeed1: 20
    - _GlossMapScale: 1
    - _Glossiness: 0.5
    - _GlossyReflections: 1
    - _Metallic: 0
    - _MetallicPower: 0
    - _Mode: 0
    - _NormalPower: 0.33
    - _NormalPower1: 1
    - _NormalScale: 1
    - _NormalSpeed: 0
    - _NormalTiling: 0.05
    - _OcclusionStrength: 1
    - _Parallax: 0.02
    - _RefractionPower: 0
    - _SmoothnessPower: 1
    - _SmoothnessTextureChannel: 0
    - _SpecularHighlights: 1
    - _SrcBlend: 1
    - _Tess: 16
    - _TesselationPower: 0
    - _Tiling: 0.4
    - _Tiling2: 1.04
    - _UVSec: 0
    - _UseOpacity: 0
    - _WaterDepth: 0
    - _WaterFalloff: 0
    - _WaterOpacity: 0
    - _WaterReflection: 0
    - _WaterScale: 0
    - _WaterSmoothness: 0
    - _WaterSpecular: 0
    - _WaterSpeed: 0
    - _WavesHeight: 0
    - _WavesScale: 5
    - _WavesSpeed: 3
    - _WavesTiling: 0.5
    - _ZWrite: 1
    - __dirty: 0
    m_Colors:
    - _CausticsColor: {r: 0.46337664, g: 0.80990493, b: 0.8396226, a: 0}
    - _Color: {r: 1, g: 1, b: 1, a: 1}
    - _Color0: {r: 0, g: 0.5987654, b: 1, a: 0}
    - _Color1: {r: 1, g: 0.76618373, b: 0, a: 1}
    - _DepthColor: {r: 1, g: 0.22373971, b: 0, a: 1}
    - _DepthColor1: {r: 0.9056604, g: 0.32008928, b: 0.046991818, a: 0}
    - _EmissionColor: {r: 0, g: 0, b: 0, a: 1}
    - _MainColor: {r: 0, g: 0.6810271, b: 0.6886792, a: 1}
    - _NormalDirection: {r: 0, g: 1, b: 0, a: 1}
    - _SecondColor: {r: 0.5404058, g: 0.8679245, b: 0.8414827, a: 0}
    - _WaterDeepColor: {r: 1, g: 1, b: 1, a: 0}
    - _WaterShallowColor: {r: 0, g: 0, b: 0, a: 0}
    - _WavesColor: {r: 0.27874687, g: 0.646538, b: 0.8207547, a: 0}
    - _WavesDirection: {r: 1, g: 1, b: 0, a: 0}
    - _WavesDirectionOLD: {r: 2, g: 2, b: 0, a: 0}
    - _WavesScale: {r: 1, g: 1, b: 0, a: 0}
    - _WavesScaleOLD: {r: 1, g: 1, b: 0, a: 0}
    - _WavesScaleXY: {r: 0.1, g: 0.1, b: 0, a: 0}
  m_BuildTextureStacks: []
